     1641.86
     1668.17
     1695.05
     1721.34
     1747.50
     1769.71
     1795.55
     1822.83
     1849.66
     1875.04
     1906.12
     1935.09
     1961.56
     1985.65
     2006.84
     2040.54
     2072.03
     2101.80
     2129.79
     2155.70
     2191.44
     2227.19
     2264.02
     2301.75
     2340.58
     2380.35
     2419.56
     2346.68
     2385.77
     2425.25
     2466.02
     2625.13
     2667.21
     2710.01
     2753.49
     2786.39
     2819.72
     2854.25
     2889.20
     2924.28
     2959.15
     2992.17
     3024.99
     3057.63
     3090.03
     3122.39
     3152.81
     3183.43
     3213.95
     3244.35
