GFORTRAN module created from src/initialise_fixedicesheet.f90 on Sat Apr 14 12:24:17 2007
If you edit this, you'll get what you deserve.

(() () () () () () () () () () () () () () () () () () () () ())

()

()

()

()

(2 'initialise_fixedicesheet_mod' 'initialise_fixedicesheet_mod' 1 ((
MODULE UNKNOWN-INTENT UNKNOWN-PROC UNKNOWN) (UNKNOWN 0 ()) 0 0 () () 0 ()
())
3 'initialise_fixedicesheet' 'initialise_fixedicesheet_mod' 1 ((
PROCEDURE UNKNOWN-INTENT MODULE-PROC DECL SUBROUTINE) (UNKNOWN 0 ()) 4 0
(5 6 7 8) () 0 () ())
7 'albedo_atm' '' 4 ((VARIABLE INOUT UNKNOWN-PROC UNKNOWN DIMENSION
DUMMY) (REAL 4 ()) 0 0 () (2 EXPLICIT (CONSTANT (INTEGER 4 ()) 0 '1') (
CONSTANT (INTEGER 4 ()) 0 '64') (CONSTANT (INTEGER 4 ()) 0 '1') (
CONSTANT (INTEGER 4 ()) 0 '32')) 0 () ())
6 'orog_atm' '' 4 ((VARIABLE IN UNKNOWN-PROC UNKNOWN DIMENSION DUMMY) (
REAL 4 ()) 0 0 () (2 EXPLICIT (CONSTANT (INTEGER 4 ()) 0 '1') (CONSTANT
(INTEGER 4 ()) 0 '64') (CONSTANT (INTEGER 4 ()) 0 '1') (CONSTANT (
INTEGER 4 ()) 0 '32')) 0 () ())
8 'icefrac_atm' '' 4 ((VARIABLE OUT UNKNOWN-PROC UNKNOWN DIMENSION DUMMY)
(REAL 4 ()) 0 0 () (2 EXPLICIT (CONSTANT (INTEGER 4 ()) 0 '1') (
CONSTANT (INTEGER 4 ()) 0 '64') (CONSTANT (INTEGER 4 ()) 0 '1') (
CONSTANT (INTEGER 4 ()) 0 '32')) 0 () ())
5 'iland_atm' '' 4 ((VARIABLE UNKNOWN-INTENT UNKNOWN-PROC UNKNOWN
DIMENSION DUMMY) (INTEGER 4 ()) 0 0 () (2 EXPLICIT (CONSTANT (INTEGER 4
()) 0 '1') (CONSTANT (INTEGER 4 ()) 0 '64') (CONSTANT (INTEGER 4 ()) 0 '1')
(CONSTANT (INTEGER 4 ()) 0 '32')) 0 () ())
)

('initialise_fixedicesheet' 0 3 'initialise_fixedicesheet_mod' 0 2)
