11.2156
7.812977
3.476956
2.407933
2.325229
2.399117
3.460633
4.596807
5.979223
6.492362
5.598472
4.993748
4.784727
2.332528
2.450605
1.340320
0.8251108
0.9962156
0.7890534
0.6967807
1.239486
1.612979
1.766635
2.303651
2.280871
2.211691
4.384496
6.664723
7.822543
8.890722
9.788174
11.15776
11.22849
7.609947
3.293426
2.523039
2.638849
2.928956
4.302055
4.935248
4.712275
5.823938
5.572402
5.277598
4.788215
2.281858
2.632812
1.312760
0.7148089
1.019571
1.003790
0.8233449
1.033104
1.264734
1.492
2.094846
2.242142
2.292793
4.510108
6.697949
7.874993
8.897062
9.766147
11.10887
11.24790
7.517149
3.182929
2.758613
3.549684
3.870599
4.846149
4.851605
3.521757
3.468986
4.587066
5.214115
5.010778
2.487711
2.599055
1.757563
1.950254
0.8754674
1.467381
1.660039
1.772459
1.687183
1.617945
2.032009
2.169853
2.327520
4.52539
6.65345
8.013782
9.178273
9.767626
11.06648
11.27431
7.547934
3.180488
3.061381
4.187642
4.492548
5.203493
4.942053
3.225516
2.648544
3.886277
5.171587
5.333379
2.852323
2.570484
1.938382
3.094179
2.136032
1.601209
2.096037
2.830995
2.735424
2.199849
2.215656
2.117830
2.233202
4.295397
6.463488
8.243358
9.475447
9.796674
11.03146
11.30856
7.648738
3.294642
3.904741
4.895594
4.734973
5.636172
5.675906
5.085248
3.479477
4.224241
5.254688
5.277087
2.943509
2.605070
2.128668
3.647067
3.198617
1.795695
2.058277
2.336215
3.131977
2.600901
2.474229
2.130853
2.054582
3.751718
6.18217
8.552943
10.04787
9.84854
11.00342
11.35122
7.807443
3.407700
4.259429
5.550085
5.778518
6.239853
6.875337
6.657918
4.95141
5.113105
5.326801
4.832309
2.769918
2.220138
1.505393
3.071821
2.848980
2.463823
2.853443
2.476828
2.701789
2.634385
2.640596
2.143117
1.843459
2.804050
5.977145
8.973848
10.57415
9.915365
10.98410
11.40005
8.03701
3.639147
4.556926
6.040344
6.35523
6.878137
7.829927
7.702135
6.63131
5.693654
5.163589
4.101374
2.614285
1.443670
0.9365374
1.777785
1.928933
3.507152
3.388996
2.762555
2.205826
2.497348
2.666956
2.180259
1.68836
2.420617
6.003108
9.506195
10.98087
9.983592
10.97174
11.45381
8.340988
3.987842
4.165539
6.292402
6.679402
7.373892
8.511897
8.21756
6.825571
5.78177
5.039142
3.297121
2.829199
1.193288
1.123614
1.750424
2.456543
3.468431
2.257869
1.951183
2.105569
2.412227
2.671402
2.231986
1.621599
2.268902
6.272665
10.10284
11.52826
10.03814
10.96862
11.50984
8.73327
4.39058
4.427473
6.352734
6.750559
7.638115
8.987551
8.53885
6.849548
5.928057
5.395177
4.098326
2.710816
1.338644
1.722254
0.661373
1.068895
1.306780
1.756683
1.647950
2.044693
2.391775
2.644982
2.220078
1.595089
2.278067
6.682406
11.06957
11.78604
10.08044
10.97401
11.56426
9.184348
4.95033
4.818496
6.437972
6.78175
7.893858
9.337449
8.848941
7.061392
6.174638
5.628883
4.101427
1.737206
0.691651
0.5423356
0.6545484
0.653745
0.7276743
1.199765
1.659092
1.918917
2.279637
2.565590
2.207816
1.576424
2.333543
7.091762
11.56759
11.97805
10.04926
10.98958
11.61310
9.660207
6.23364
6.130835
6.802264
7.065966
8.265943
9.597718
9.008124
7.284803
6.23878
5.079447
3.034426
0.9615466
0.6199525
0.5399863
0.5475014
0.5465137
0.8395472
1.337741
1.600738
1.685840
2.107979
2.410676
2.141041
1.605897
2.39797
7.398924
11.86713
12.02805
9.989424
11.01640
11.65316
10.13812
7.627424
7.084956
7.641904
7.866378
8.765289
9.611262
8.819117
7.363718
6.468367
4.283092
1.686190
0.7378044
0.595562
0.5669016
0.4397654
0.5785553
0.8595333
1.147595
1.323663
1.539346
2.002285
2.313599
2.107349
1.670789
2.425594
7.537034
11.89411
11.87931
9.888117
11.05620
11.6794
10.58443
8.675949
8.209422
8.896477
9.11511
9.340888
9.448578
8.401872
7.34356
7.035486
5.151548
1.590693
0.6425887
0.5751715
0.7073633
0.4781489
0.557959
0.7676339
0.9600801
1.230518
1.627230
1.942957
2.179768
2.157559
1.765571
2.452924
7.490716
11.73987
11.64127
9.757567
11.10904
11.68985
10.99229
9.645294
9.302652
10.06565
10.05013
9.684764
9.146266
7.91653
7.066674
7.064952
5.399282
2.378658
0.6411211
0.5923098
0.6194902
0.48605
0.4970138
0.887129
1.113494
1.371736
1.779658
1.866911
2.007824
2.092326
1.859984
2.621177
7.265037
10.96806
11.21932
9.614213
11.17734
11.68137
11.30850
10.38043
10.13543
10.80159
10.42753
9.548066
8.798463
7.646152
6.779351
6.518113
4.939362
2.662578
1.054276
0.6206422
0.7035243
0.494172
0.4588828
0.9670553
1.207158
1.319739
1.700543
1.778273
1.889688
2.046021
1.935142
2.693897
6.875147
10.68760
10.73937
9.507532
11.26219
11.65154
11.52084
10.87468
10.57762
10.96398
10.14599
9.007858
8.563064
7.641931
6.830796
5.755193
3.912874
2.360046
1.026225
0.5968119
0.7691408
0.4870188
0.4940333
0.830483
1.092346
1.180259
1.585768
1.754418
1.860704
1.994108
1.855929
2.312363
6.367885
9.967837
10.20368
9.34582
11.36532
11.60106
11.62462
11.05484
10.62877
10.60818
9.309284
8.272699
8.526502
7.851085
6.684755
5.370941
3.088082
1.370020
0.7164839
0.5393168
0.625134
0.4758005
0.4877872
0.7354064
1.079510
1.253211
1.628924
1.723411
1.806156
1.920562
1.736349
2.057215
5.80737
9.134277
9.65087
9.249823
11.48682
11.53038
11.62661
11.12641
10.4104
9.992778
8.653082
7.986076
8.755872
8.151337
6.43323
4.465163
2.424527
1.521802
0.7301528
0.5477461
0.581148
0.4743426
0.4569293
0.7104005
1.058048
1.288457
1.558894
1.525401
1.650117
1.822775
1.646743
1.920590
5.320612
8.379486
9.192441
9.200346
11.62637
11.44112
11.54624
11.08178
10.13873
9.471372
8.484883
8.331392
9.18436
8.373034
5.98817
3.372204
2.229603
1.288821
0.9366993
0.8328551
1.403800
0.5421512
0.4347108
0.7096177
0.9322743
1.06266
1.201985
1.281034
1.524917
1.727191
1.613073
1.889199
5.012839
7.811998
8.698346
9.215083
11.80028
11.33626
11.40918
11.02311
9.99144
9.308534
9.010034
9.139619
9.453498
8.392681
6.19716
3.260362
2.356544
1.700553
1.177291
0.7975764
0.7344684
0.4654105
0.5970798
0.8377766
0.9466564
1.093274
1.218782
1.331629
1.531066
1.658367
1.626555
1.930489
4.881032
7.53748
8.447777
9.311234
11.97216
11.21929
11.23950
11.02883
10.10714
9.51197
9.78518
9.97268
9.63724
8.421323
6.677973
4.077564
2.670858
1.417850
0.7252807
0.5162291
0.6916307
0.5681931
0.7468553
1.083019
1.342910
1.987069
2.193046
1.777892
1.576777
1.567810
1.661060
2.026532
4.88075
7.645037
8.451931
9.498534
12.15087
11.09568
11.05972
11.18739
10.52433
9.991752
10.54783
10.70155
9.816496
8.38189
6.569305
4.361094
2.621044
1.091875
0.5378433
0.4681817
0.5484007
0.4611324
0.8190156
1.221147
1.838284
3.508840
4.005236
2.368984
1.584298
1.446587
1.667457
2.159293
4.96945
7.931266
8.790191
9.776582
12.36082
10.96801
10.88496
11.4134
11.17901
10.63244
10.88180
11.15848
10.09003
8.0115
5.52431
3.591578
1.956956
1.011131
0.5843149
0.4916546
0.4693057
0.5485395
0.9943729
1.263440
2.069613
3.244014
4.203528
2.721337
1.576289
1.344748
1.676131
2.301872
5.011778
8.447562
9.296301
10.13793
12.58277
10.8416
10.72378
11.69762
11.9416
11.18260
10.85808
11.13591
10.23638
7.838248
4.735161
2.906044
1.747090
1.012028
0.6218706
0.5138881
0.4956656
0.6597585
1.169258
1.993234
2.550147
3.502897
4.261622
3.056557
1.664511
1.320317
1.685353
2.401461
5.064777
9.016238
9.946504
10.5699
12.80741
10.72067
10.57782
11.96991
12.68129
11.41923
10.15394
10.14052
9.57473
6.671828
4.257832
2.597532
1.490798
0.8146846
0.5438158
0.5083989
0.4778294
0.5508615
1.059005
2.195764
2.973502
4.057204
4.852177
3.572980
1.883560
1.373833
1.691910
2.437748
5.290878
9.601053
10.58204
11.05843
13.03261
10.60833
10.44521
12.17836
13.18839
11.27967
7.778156
8.340851
7.157475
5.688108
3.901216
2.462723
1.278157
0.6611472
0.5204046
0.4903076
0.4865583
0.5308949
0.9245043
1.675674
3.122300
4.366131
5.114762
4.035328
2.089947
1.457959
1.712534
2.432700
5.428509
9.954945
11.23395
11.58243
13.25821
10.5086
10.32598
12.29863
13.35605
10.85510
6.546911
5.725608
5.606218
4.881383
3.635936
2.353991
1.160730
0.6391245
0.5701176
0.4970117
0.5494723
0.4894374
0.6506837
1.147276
2.805658
4.05917
4.912899
4.041706
2.172715
1.563778
1.705982
2.476270
5.489606
10.30424
11.81755
12.11371
13.47537
10.42316
10.22502
12.31149
13.17707
10.27220
5.574367
4.414324
4.578027
4.315777
3.412908
2.138770
1.033365
0.6332057
0.5511271
0.4973534
0.5363592
0.5174043
0.5626254
0.8626738
1.689122
3.713949
4.222807
2.989543
2.092401
1.663475
1.737848
2.511441
5.697947
10.43681
12.33456
12.62612
13.68165
10.35356
10.14679
12.20488
12.79154
9.628323
4.948913
3.739165
4.066812
4.061993
3.215413
1.876667
0.9471527
0.6676892
0.5186819
0.4850122
0.5273557
0.5187738
0.5348773
0.8308025
1.375254
2.244305
2.628046
2.328222
1.971083
1.752406
1.813443
2.561060
5.749014
10.19249
12.72223
13.05493
13.85849
10.30059
10.09548
12.01157
12.29030
8.936289
4.537770
3.371800
3.722608
3.831181
2.981387
1.733644
1.018602
0.75891
0.5510906
0.5030239
0.574544
0.5437078
0.4836456
0.7409851
1.328142
1.735647
1.876060
1.902282
1.855353
1.785683
1.867133
2.555553
5.672973
10.07540
12.94089
13.03911
14.02184
10.26530
10.07518
11.84013
11.72146
8.223835
4.120255
3.061133
3.373032
3.45869
2.741518
1.749406
1.152704
0.7731723
0.5455151
0.509367
0.5540752
0.5446509
0.4581704
0.6224188
1.212119
1.560232
1.670154
1.817550
1.799667
1.767612
1.874732
2.449704
5.34156
9.821115
12.58986
13.31046
14.13755
10.24658
10.08577
11.69288
11.19781
7.627862
3.762933
2.769486
3.051397
3.147
2.597138
1.833539
1.246057
0.7189048
0.4957059
0.5059629
0.5328683
0.5359401
0.4751351
0.5614872
1.157191
1.551057
1.728369
1.914145
1.807293
1.74825
1.860702
2.376725
4.93328
9.46778
12.51239
13.47812
14.24277
10.24308
10.12215
11.58334
10.82297
6.479351
3.565835
2.65017
2.942323
3.104379
2.628176
1.844961
1.224650
0.7231821
0.4912975
0.5299229
0.5349899
0.5267053
0.4621871
0.5638298
1.187847
1.597801
1.784465
1.910399
1.775686
1.742418
1.875259
2.332654
4.510851
9.092402
12.34954
13.56777
14.345
10.25377
10.17477
11.49632
10.57485
6.118867
3.537888
2.65267
2.960426
3.227938
2.731716
1.772016
1.125061
0.7432406
0.5324502
0.5345351
0.4921135
0.4692479
0.4614715
0.5315626
1.125291
1.575851
1.798211
1.837362
1.701402
1.740952
1.908548
2.339688
4.415037
8.778622
12.14426
13.60241
14.40562
10.27720
10.23035
11.40621
10.04861
6.79817
3.671011
2.668378
2.934562
3.258002
2.769941
1.767807
1.069322
0.7036988
0.508872
0.5242395
0.4728564
0.4333784
0.4431963
0.4979142
0.9958128
1.543190
1.867988
1.831606
1.656956
1.745362
1.945715
2.409660
4.593408
8.60203
11.95220
13.60429
14.43041
10.31062
10.27785
11.28094
10.58076
7.52038
3.866452
2.683289
2.847452
3.136824
2.708289
1.809082
1.099502
0.6904252
0.4753285
0.5078158
0.4975039
0.4186599
0.4037076
0.4903622
0.9473317
1.553324
1.963064
1.890988
1.653113
1.735051
1.961931
2.528397
4.908599
8.59236
11.82190
13.59465
14.46484
10.35302
10.30798
11.08995
10.25894
7.66664
4.777672
2.758752
2.8285
3.048525
2.590587
1.694152
1.044390
0.7346326
0.5200734
0.4710417
0.4423594
0.3949704
0.3838479
0.5156117
0.950578
1.493482
1.918879
1.881385
1.639690
1.727387
1.996715
2.680073
5.299516
8.720301
11.78652
13.58839
14.46745
10.40197
10.31861
10.82249
9.979605
7.646
4.080028
2.839803
2.880608
3.03658
2.473027
1.489649
0.9256051
0.7510833
0.6040126
0.4633755
0.4166773
0.4000578
0.4085633
0.5254255
0.9452722
1.409583
1.808915
1.830011
1.627839
1.741789
2.070335
2.860321
5.753727
8.902938
11.83938
13.9425
14.57232
10.45582
10.31338
10.49535
9.570502
7.421367
4.063498
2.817862
2.796023
2.85797
2.305090
1.436050
0.9148725
0.7394528
0.5989683
0.4970479
0.4663007
0.4293961
0.3993809
0.5086697
0.988066
1.471035
1.833910
1.847917
1.639074
1.758856
2.139739
2.979316
5.928452
9.035427
11.94129
13.94429
14.45353
10.51316
10.29977
10.14416
9.083782
7.072317
3.956195
2.685358
2.490158
2.376457
1.89472
1.376275
1.021627
0.7869287
0.5650083
0.4843339
0.5018642
0.4431732
0.3807154
0.5280495
1.016225
1.522539
1.907236
1.919592
1.657943
1.744821
2.155982
2.918628
5.799303
9.039388
12.05356
13.97191
14.42064
10.57321
10.28937
9.820741
8.594617
6.746723
4.593681
2.666816
2.318629
2.037553
1.463392
1.065291
0.9879301
0.8915378
0.6250711
0.4667431
0.4645227
0.4342232
0.3857855
0.5358787
0.9519346
1.397301
1.833303
1.947009
1.691021
1.705473
2.102209
2.763635
5.03811
8.898824
12.15574
13.92402
14.39493
10.63425
10.29433
9.578906
8.195176
6.542275
4.760663
3.094658
2.938826
2.695824
1.742933
1.001391
0.91766
0.9563
0.7217594
0.5097633
0.4697989
0.4521278
0.3928457
0.481728
0.879522
1.240218
1.700892
1.932417
1.747520
1.674236
1.986658
2.532690
4.020018
8.654622
12.21397
13.98961
14.33055
10.69538
10.32203
9.459924
7.944583
6.49548
5.192982
4.829791
5.453197
5.562977
3.687174
1.998638
1.214818
1.051369
0.6980917
0.5010319
0.4992202
0.4574238
0.3986457
0.4296704
0.8006241
1.235760
1.730498
1.958590
1.812670
1.652805
1.863108
2.306645
3.565284
8.381887
12.5
13.93433
14.25374
10.75582
10.37437
9.424048
7.860759
6.572073
5.85066
6.327463
7.250005
7.509243
6.335452
3.824888
2.212612
1.292864
0.6430496
0.443811
0.4816544
0.4191518
0.381055
0.4176697
0.6671887
1.159225
1.715456
1.965004
1.856794
1.631762
1.760679
2.168567
3.335222
8.146904
12.52644
13.95452
14.16707
10.81407
10.44543
9.624615
7.930548
6.696635
6.617559
7.429876
8.095344
7.806348
6.602404
5.002053
2.757479
1.358310
0.6572617
0.4362732
0.4795631
0.387905
0.3803949
0.4012752
0.574045
1.034252
1.61064
1.896743
1.872176
1.615436
1.665371
2.084051
3.201965
7.98751
12.30309
13.88257
14.04307
10.86937
10.52438
9.860238
8.104365
6.764777
7.098559
8.112461
8.276438
7.15984
5.53084
4.122574
2.638929
1.185567
0.5572392
0.4275238
0.4154372
0.3683067
0.3668477
0.3860943
0.5843441
1.039265
1.593434
1.881986
1.883367
1.608255
1.594282
2.030268
3.149016
7.904606
12.36729
13.82358
13.90020
10.92054
10.59303
10.13400
8.354062
6.684133
7.126172
8.443498
8.53332
7.124709
5.775977
4.314309
2.616087
1.580641
0.6895117
0.4140436
0.4334358
0.3510957
0.3818332
0.4241745
0.6358874
0.9764078
1.509092
1.867163
1.868723
1.581184
1.5305
1.981644
3.100621
7.877289
12.68681
13.77977
13.72289
10.96769
10.63272
10.38440
8.481335
6.445241
6.753183
8.404372
8.735691
7.497184
6.219161
4.845965
2.486624
2.028358
0.9216353
0.4308952
0.4146778
0.3539963
0.4020622
0.4439388
0.642756
0.9057667
1.345557
1.714828
1.758009
1.520454
1.478996
1.941837
3.052206
7.889957
12.72408
13.64782
13.56535
11.00925
10.64161
10.59525
8.627658
6.108246
5.903559
8.049764
8.547677
7.186894
6.024915
4.653732
2.402069
2.076218
1.075777
0.5713557
0.3682138
0.4020108
0.4441202
0.455831
0.5498883
0.9737661
1.327998
1.494496
1.559599
1.459573
1.470468
1.919691
3.016475
7.906376
12.70420
13.46183
13.40730
11.04604
10.53776
10.56404
8.77527
5.729965
5.353582
7.5692
8.060656
6.451504
4.942454
3.402879
1.808330
1.237626
1.610732
0.6305633
0.3770037
0.5218002
0.5692518
0.5420142
0.6112383
0.8927915
1.139116
1.284848
1.468498
1.502512
1.555619
1.918511
2.998817
7.908578
12.59064
13.29853
13.22975
11.07701
10.47613
10.47113
8.549961
5.383023
4.905839
7.150507
7.59076
5.928918
4.288901
2.495773
1.401629
0.9265085
0.6951771
0.4578622
0.4763236
0.9577438
1.710723
0.9033456
0.700031
0.8879255
1.123625
1.440544
1.736362
1.763949
1.734633
1.94647
3.051349
7.910966
12.37778
12.96578
12.89984
11.10326
10.30714
10.17274
8.33827
5.467372
4.948351
6.767832
7.179
5.547356
3.584745
2.478505
1.453353
0.861365
0.552248
0.5764441
0.8307399
2.584879
2.519984
1.549255
0.817612
1.225832
1.753060
2.334823
3.208356
2.467408
2.260387
2.003525
3.284702
7.939418
12.04963
12.35298
12.71663
11.12506
10.08618
9.64509
7.872482
5.277736
4.771443
6.282784
6.551321
4.648849
3.193028
2.441438
1.465583
0.88112
0.594508
0.6312002
0.9582133
3.553273
3.669431
1.451962
1.067618
1.734144
2.902752
3.864871
3.716466
2.732303
1.971649
2.094897
3.804693
8.187612
11.63991
11.95894
12.68239
11.14296
9.859917
8.987603
7.159578
4.474963
3.975918
5.564427
5.280395
3.814133
2.731459
2.081954
1.197518
0.78547
0.6927608
0.6176835
0.6738085
3.278624
4.656059
3.217184
1.775245
2.347608
3.438025
3.985337
3.091441
2.214443
1.878284
2.298142
4.430064
8.201654
11.09765
11.54232
12.50679
11.15837
9.621273
8.048232
5.703046
3.815949
3.325156
4.300319
4.509433
3.40775
2.523284
1.823177
0.9832156
0.6304142
0.6188154
0.5631262
0.5650713
2.469611
4.353945
4.682901
3.34519
3.131528
3.900225
3.515106
2.66342
2.016601
1.860456
2.455647
5.100922
8.413454
10.69431
11.13199
12.32949
11.17037
9.431246
7.372108
5.95311
4.360211
2.804131
3.479090
4.079238
3.35939
2.491018
1.729723
0.9594254
0.5926564
0.4920055
0.4837652
0.6232144
2.013752
3.214048
3.89311
3.041706
2.806493
3.232725
2.786809
2.18536
1.964606
1.960041
2.583514
5.64941
8.613394
10.31727
10.75548
12.16073
11.17999
9.249018
6.782911
5.340236
4.100069
2.502222
2.921089
3.591658
3.144764
2.290922
1.479855
0.9333993
0.635009
0.4755374
0.4733275
0.5881324
2.030528
2.258300
2.142624
1.610706
1.803686
2.335525
2.336410
2.109899
2.037082
2.08625
2.701617
6.07394
8.743723
9.972863
10.43068
11.88764
11.18754
9.066355
6.36981
4.888333
2.934410
2.372927
2.742441
3.102418
2.772133
1.914917
1.158067
0.8258468
0.6915972
0.5531592
0.4771888
0.4289291
0.7827447
2.318612
2.131582
1.469424
1.571768
1.941775
2.167959
2.140332
2.058622
2.134784
3.011422
6.396456
8.775188
9.679613
10.16966
11.75508
11.19304
8.910922
6.003319
4.506965
2.722704
2.324826
2.673381
2.766094
2.360307
1.733225
1.173617
0.8273096
0.7011819
0.5774358
0.4791794
0.4834574
0.4674835
0.6118486
0.9734913
1.232582
1.426434
1.810067
2.195417
2.250507
2.096814
2.163163
3.445099
6.633021
8.705613
9.431548
10.23141
11.63554
11.19701
8.761741
5.712803
3.985020
2.501057
2.311730
2.53772
2.418840
2.064363
1.781844
1.322463
0.8796938
0.7581365
0.6741152
0.4608319
0.5430339
0.5604716
0.471647
0.6078046
1.017624
1.443892
1.851344
2.242346
2.363869
2.202447
2.219287
4.015278
6.777674
8.559924
9.221723
10.19782
11.52862
11.19904
8.591766
5.375848
3.457535
2.327007
2.242745
2.281293
2.060608
1.780222
1.488321
0.9957316
0.7690668
0.8352225
0.7149837
0.4597399
0.5149706
0.6005385
0.5183137
0.5368628
0.8896876
1.454005
1.879619
2.186193
2.380333
2.250787
2.249576
4.074941
6.814461
8.373443
9.060122
10.11673
11.43432
11.20147
8.377516
4.973181
2.768163
2.201183
2.120119
1.995043
1.806319
1.697498
1.356491
0.9954537
1.110872
1.306902
0.751917
0.8183553
0.6131544
0.5195794
0.5411365
0.5059264
0.6836842
1.260057
1.772945
2.087337
2.350236
2.240904
2.227612
4.197722
6.763193
8.174016
9.07659
10.01249
11.35091
11.20396
8.198926
4.552828
2.589819
2.155984
2.024397
1.893973
2.034044
2.610243
2.602392
2.128598
2.43228
2.720335
1.306440
2.142876
0.9217562
0.528308
0.6109271
0.5949319
0.6892743
1.212287
1.733055
2.097204
2.395576
2.270278
2.174388
4.28211
6.68494
7.989005
8.985502
9.882044
11.27811
11.20818
8.014626
3.718176
2.429550
2.203585
2.080401
2.241039
3.014209
5.017794
5.355413
4.240732
3.959915
4.157771
2.006759
2.257389
1.147265
0.6707284
0.831238
0.7356484
0.7634275
1.375440
1.789087
2.041926
2.442982
2.294927
2.168216
4.293186
6.64586
7.86235
8.906876
9.829158
11.21400
