dummy,EUR,CPA,SAS,PAO,FSU,NAM,PAS,MEA,LAM,AFR
y1995,0.012,0.01,0.01,0.012,0.012,0.012,0.01,0.01,0.01,0.012
y2005,4525.85489438,7074.6999056035,3295.005898729,765.14878616098,1238.1682697379,6090.6721307816,5464.742874871,782.32676725368,5102.0723933287,10386.332058224
y2015,5260.8964093502,10488.472090855,5182.9137313009,701.12203063146,1583.6215676537,5318.6637014552,6030.6644052342,735.40005117264,4463.7721398695,13856.495260992
y2025,4598.8161302205,14175.551476512,4671.2165591597,552.85771826358,2130.0319151829,4015.7061147648,4868.816098354,261.57965490522,4276.4734738903,10903.510787799
y2035,4740.8530936503,27081.879682562,3305.1814632889,811.93508017891,5443.344115849,3579.0951637918,5478.2952814573,15.55073406444,9264.314678686,9327.4483184229
y2045,7604.4964713307,40367.459860853,4250.3103844711,2491.4767499807,15850.336455696,8513.1803778507,10668.780570923,0.0001,27528.338621897,13837.801329744
y2055,16595.78796191,55478.122203754,10354.010077085,6274.7403076803,37435.215317089,26947.129686126,18738.165321295,120.3293470903,47597.250627009,22768.163808565
y2065,27038.842588213,63743.841463534,16441.612750749,10359.974357767,64225.80262003,51979.736626638,27995.447916622,627.86121134112,59565.523673358,35640.657842093
y2075,38325.952643704,65828.23013863,23161.732395543,13149.815464584,71270.70638687,64639.452335403,39979.466554909,1765.7621628475,70510.14855686,51621.247470187
y2085,50445.255088012,66693.440491047,30080.042492435,15908.661539899,73489.785998511,82360.6098685,50216.425500769,4232.3640586045,77557.887972715,66752.587597556
y2095,58628.441156601,70522.882992821,34314.606552043,18028.556995859,75667.259405709,99010.837900922,56901.70788648,8796.2078016774,81027.922229604,76090.595585024
y2105,63783.204509588,74435.753950914,36652.82332643,19359.242537299,76670.244210331,109018.36686184,61039.828282686,13779.505442632,81883.705532439,75503.876266581
y2115,66510.816194056,75707.252824921,37618.062377915,20024.279720314,76922.731314537,112801.738504,62364.9875238,23631.504694912,80295.88665882,68500.592483811
y2125,66607.972604632,74585.320956276,37006.799024359,20006.571451412,76411.534666286,113288.26189997,61715.224448924,29538.981695374,77946.279406973,58275.651285669
y2135,65475.701909077,72492.634811432,35953.446172306,19536.631005103,75233.878015023,110875.17066033,60284.251293771,32075.99987305,74579.589427095,47377.466619028
y2145,58967.38981447,65413.364271615,33412.32571491,17951.415422049,73130.32631316,100447.03403879,53994.90891866,34469.203415185,67791.877956863,38444.955503615
