"dummy","AFR","CPA","EUR","FSU","LAM","MEA","NAM","PAO","PAS","SAS"
"y1995",2.5879,3.8225,5.9861,2.1473,3.0341,2.1473,3.4756,4.1093,6.1130,6.2045
"y2005",5.0099,4.2919,5.1038,2.5527,3.3595,4.7658,4.1476,4.4860,4.7287,4.0383
"y2015",5.0224,4.6066,4.8333,2.8590,3.3617,4.9474,4.1729,4.5052,4.6417,4.7562
"y2025",4.9074,5.0126,4.8537,2.9894,3.3864,5.6356,4.2095,4.4433,4.6388,5.3173
"y2035",4.5143,5.7732,5.0911,3.4879,3.7209,5.6943,4.6666,5.0195,5.0602,5.7297
"y2045",5.0814,6.9467,5.5504,4.1119,4.5187,11.8999,5.9130,5.9480,5.0907,6.4811
"y2055",5.2956,7.8690,7.5471,7.0644,5.1467,8.9817,9.2032,8.1711,5.6569,8.7542
"y2065",6.0325,8.4959,9.4331,11.0269,5.6844,13.5552,13.4480,10.2431,8.7395,10.3003
"y2075",6.8855,8.6971,11.6686,9.2502,6.2983,21.9296,13.5854,10.7615,9.7761,11.2793
"y2085",7.3740,8.8215,16.6014,9.0375,6.8679,36.5499,17.6837,13.3185,10.5849,12.7671
"y2095",7.7114,9.1159,18.1083,9.2044,7.0414,68.1815,20.9568,14.6927,10.5739,13.7875
"y2105",7.4566,9.2036,19.0759,9.2804,7.0483,87.2981,22.1828,15.6768,10.7226,14.0382
"y2115",7.4251,9.3282,19.2895,9.2979,7.0394,206.3703,21.9565,16.2526,10.7842,14.6790
"y2125",7.1952,9.4896,18.4751,9.3598,6.8942,223.9331,21.3824,15.7892,10.8357,15.3469
"y2135",6.8475,9.6211,18.0676,9.4946,6.6655,215.2127,20.9587,15.5946,10.8876,15.9977
"y2145",6.8063,8.9316,9.0923,9.1986,6.3226,242.8642,13.0721,13.7537,10.9280,16.4977
